\relax 
\providecommand\hyper@newdestlabel[2]{}
\providecommand\HyperFirstAtBeginDocument{\AtBeginDocument}
\HyperFirstAtBeginDocument{\ifx\hyper@anchor\@undefined
\global\let\oldcontentsline\contentsline
\gdef\contentsline#1#2#3#4{\oldcontentsline{#1}{#2}{#3}}
\global\let\oldnewlabel\newlabel
\gdef\newlabel#1#2{\newlabelxx{#1}#2}
\gdef\newlabelxx#1#2#3#4#5#6{\oldnewlabel{#1}{{#2}{#3}}}
\AtEndDocument{\ifx\hyper@anchor\@undefined
\let\contentsline\oldcontentsline
\let\newlabel\oldnewlabel
\fi}
\fi}
\global\let\hyper@last\relax 
\gdef\HyperFirstAtBeginDocument#1{#1}
\providecommand\HyField@AuxAddToFields[1]{}
\providecommand\HyField@AuxAddToCoFields[2]{}
\@writefile{toc}{\contentsline {section}{\numberline {1}Introduction}{1}{section.1}}
\@writefile{toc}{\contentsline {section}{\numberline {2}Preliminaries}{1}{section.2}}
\citation{Kohavi78}
\citation{Kohavi78}
\citation{Eppstein90}
\@writefile{lof}{\contentsline {figure}{\numberline {1}{\ignorespaces An automaton $A_0$}}{2}{figure.1}}
\newlabel{fig:A0}{{1}{2}{An automaton $A_0$}{figure.1}{}}
\@writefile{lof}{\contentsline {figure}{\numberline {2}{\ignorespaces An FSM $M_0$}}{2}{figure.2}}
\newlabel{fig:M0}{{2}{2}{An FSM $M_0$}{figure.2}{}}
\@writefile{toc}{\contentsline {section}{\numberline {3}The relation between homing sequences and synchronizing sequences}{2}{section.3}}
\citation{Eppstein90}
\citation{Roman05}
\@writefile{lof}{\contentsline {figure}{\numberline {3}{\ignorespaces $A_M$ of $M_0$ in Figure\nobreakspace  {}\ref  {fig:M0}}}{4}{figure.3}}
\newlabel{fig:AM0}{{3}{4}{$A_M$ of $M_0$ in Figure~\ref {fig:M0}}{figure.3}{}}
\@writefile{toc}{\contentsline {section}{\numberline {4}Synchronizing heuristics for homing automaton}{4}{section.4}}
\@writefile{loa}{\contentsline {algorithm}{\numberline {1}{\ignorespaces Phase 1 of Greedy and SycnhroP}}{5}{algorithm.1}}
\newlabel{alg:1}{{1}{5}{Synchronizing heuristics for homing automaton}{algorithm.1}{}}
\@writefile{toc}{\contentsline {section}{\numberline {5}Adaptation of synchronizing heuristics to homing sequences}{6}{section.5}}
\@writefile{loa}{\contentsline {algorithm}{\numberline {2}{\ignorespaces Phase 1 of HS Heuristics}}{6}{algorithm.2}}
\newlabel{alg:4}{{2}{6}{Adaptation of synchronizing heuristics to homing sequences}{algorithm.2}{}}
\@writefile{loa}{\contentsline {algorithm}{\numberline {3}{\ignorespaces Phase 2 of Greedy HS}}{7}{algorithm.3}}
\@writefile{loa}{\contentsline {algorithm}{\numberline {4}{\ignorespaces Phase 2 of Fast HS}}{8}{algorithm.4}}
\@writefile{loa}{\contentsline {algorithm}{\numberline {5}{\ignorespaces Phase 2 of SynchroP HS}}{9}{algorithm.5}}
\bibstyle{abbrv}
\bibdata{pure2018}
